…
# In this case, no need to redefine the usms list in sit_var_dates_mask argument, it is already
# given in param_values
results <- stics_wrapper(model_options = sim_options, param_values = param_values)

# Let's display the results
head(results)
#> $error
#> [1] FALSE
#> 
#> $sim_list
#> $sim_list[[1]]
#> $sim_list[[1]]$wheat
#> # A tibble: 411 x 51
#>   Date                  ian    mo    jo   jul lai_n masec_n mafruit  HR_1  HR_2
#>   <dttm>              <int> <int> <int> <int> <dbl>   <dbl>   <dbl> <dbl> <dbl>
#> 1 1994-10-17 00:00:00  1994    10    17   290     0       0       0  2.53  4.80
#> 2 1994-10-18 00:00:00  1994    10    18   291     0       0       0  2.31  4.66
#> 3 1994-10-19 00:00:00  1994    10    19   292     0       0       0  4.55  4.44
#> 4 1994-10-20 00:00:00  1994    10    20   293     0       0       0  4.49  4.41
#> 5 1994-10-21 00:00:00  1994    10    21   294     0       0       0  5.36  4.35
#> # ... with 406 more rows, and 41 more variables: HR_3 <dbl>, HR_4 <dbl>,
#> #   HR_5 <dbl>, resmes <dbl>, drain <dbl>, esol <dbl>, et <dbl>, zrac <dbl>,
#> #   tcult <dbl>, AZnit_1 <dbl>, AZnit_2 <dbl>, AZnit_3 <dbl>, AZnit_4 <dbl>,
#> #   AZnit_5 <dbl>, Qles <dbl>, QNplante <dbl>, azomes <dbl>, inn <dbl>,
#> #   chargefruit <dbl>, AZamm_1 <dbl>, AZamm_2 <dbl>, AZamm_3 <dbl>,
#> #   AZamm_4 <dbl>, AZamm_5 <dbl>, CNgrain <dbl>, concNO3les <dbl>, drat <dbl>,
#> #   fapar <dbl>, hauteur <dbl>, Hmax <dbl>, humidite <dbl>, LRACH_1 <dbl>,
#> #   LRACH_2 <dbl>, LRACH_3 <dbl>, LRACH_4 <dbl>, LRACH_5 <dbl>, mafrais <dbl>,
#> #   pdsfruitfrais <dbl>, Qdrain <dbl>, rnet <dbl>, cum_jul <dbl>
#> 
#> $sim_list[[1]]$pea
#> # A tibble: 129 x 25
#>   Date                  ian    mo    jo   jul lai_n masec_n mafruit  HR_1  HR_2
#>   <dttm>              <int> <int> <int> <int> <dbl>   <dbl>   <dbl> <dbl> <dbl>
#> 1 2003-03-11 00:00:00  2003     3    11    70     0       0       0     0     0
#> 2 2003-03-12 00:00:00  2003     3    12    71     0       0       0     0     0
#> 3 2003-03-13 00:00:00  2003     3    13    72     0       0       0     0     0
#> 4 2003-03-14 00:00:00  2003     3    14    73     0       0       0     0     0
#> 5 2003-03-15 00:00:00  2003     3    15    74     0       0       0     0     0
#> # ... with 124 more rows, and 15 more variables: HR_3 <dbl>, HR_4 <dbl>,
#> #   resmes <dbl>, zrac <dbl>, QNplante <dbl>, azomes <dbl>, INN <dbl>,
#> #   fapar <dbl>, hauteur <dbl>, hmax <dbl>, LRACH_1 <dbl>, LRACH_2 <dbl>,
#> #   LRACH_3 <dbl>, LRACH_4 <dbl>, cum_jul <int>
#> 
#> $sim_list[[1]]$maize
#> # A tibble: 249 x 51
#>   Date                  ian    mo    jo   jul lai_n masec_n mafruit  HR_1  HR_2
#>   <dttm>              <int> <int> <int> <int> <dbl>   <dbl>   <dbl> <dbl> <dbl>
#> 1 1996-04-21 00:00:00  1996     4    21   112     0       0       0  22.4  22.3
#> 2 1996-04-22 00:00:00  1996     4    22   113     0       0       0  22.5  24.5
#> 3 1996-04-23 00:00:00  1996     4    23   114     0       0       0  22.5  24.7
#> 4 1996-04-24 00:00:00  1996     4    24   115     0       0       0  22.2  24.7
#> 5 1996-04-25 00:00:00  1996     4    25   116     0       0       0  22.0  24.7
#> # ... with 244 more rows, and 41 more variables: HR_3 <dbl>, HR_4 <dbl>,
#> #   HR_5 <dbl>, resmes <dbl>, drain <dbl>, esol <dbl>, et <dbl>, zrac <dbl>,
#> #   tcult <dbl>, AZnit_1 <dbl>, AZnit_2 <dbl>, AZnit_3 <dbl>, AZnit_4 <dbl>,
#> #   AZnit_5 <dbl>, Qles <dbl>, QNplante <dbl>, azomes <dbl>, inn <dbl>,
#> #   chargefruit <dbl>, AZamm_1 <dbl>, AZamm_2 <dbl>, AZamm_3 <dbl>,
#> #   AZamm_4 <dbl>, AZamm_5 <dbl>, CNgrain <dbl>, concNO3les <dbl>, drat <dbl>,
#> #   fapar <dbl>, hauteur <dbl>, Hmax <dbl>, humidite <dbl>, LRACH_1 <dbl>,
#> #   LRACH_2 <dbl>, LRACH_3 <dbl>, LRACH_4 <dbl>, LRACH_5 <dbl>, mafrais <dbl>,
#> #   pdsfruitfrais <dbl>, Qdrain <dbl>, rnet <dbl>, cum_jul <int>
#> 
#> 
#> $sim_list[[2]]
#> $sim_list[[2]]$wheat
#> # A tibble: 411 x 51
#>   Date                  ian    mo    jo   jul lai_n masec_n mafruit  HR_1  HR_2
#>   <dttm>              <int> <int> <int> <int> <dbl>   <dbl>   <dbl> <dbl> <dbl>
#> 1 1994-10-17 00:00:00  1994    10    17   290     0       0       0  2.53  4.80
#> 2 1994-10-18 00:00:00  1994    10    18   291     0       0       0  2.31  4.66
#> 3 1994-10-19 00:00:00  1994    10    19   292     0       0       0  4.55  4.44
#> 4 1994-10-20 00:00:00  1994    10    20   293     0       0       0  4.49  4.41
#> 5 1994-10-21 00:00:00  1994    10    21   294     0       0       0  5.36  4.35
#> # ... with 406 more rows, and 41 more variables: HR_3 <dbl>, HR_4 <dbl>,
#> #   HR_5 <dbl>, resmes <dbl>, drain <dbl>, esol <dbl>, et <dbl>, zrac <dbl>,
#> #   tcult <dbl>, AZnit_1 <dbl>, AZnit_2 <dbl>, AZnit_3 <dbl>, AZnit_4 <dbl>,
#> #   AZnit_5 <dbl>, Qles <dbl>, QNplante <dbl>, azomes <dbl>, inn <dbl>,
#> #   chargefruit <dbl>, AZamm_1 <dbl>, AZamm_2 <dbl>, AZamm_3 <dbl>,
#> #   AZamm_4 <dbl>, AZamm_5 <dbl>, CNgrain <dbl>, concNO3les <dbl>, drat <dbl>,
#> #   fapar <dbl>, hauteur <dbl>, Hmax <dbl>, humidite <dbl>, LRACH_1 <dbl>,
#> #   LRACH_2 <dbl>, LRACH_3 <dbl>, LRACH_4 <dbl>, LRACH_5 <dbl>, mafrais <dbl>,
#> #   pdsfruitfrais <dbl>, Qdrain <dbl>, rnet <dbl>, cum_jul <dbl>
#> 
#> $sim_list[[2]]$pea
#> # A tibble: 129 x 25
#>   Date                  ian    mo    jo   jul lai_n masec_n mafruit  HR_1  HR_2
#>   <dttm>              <int> <int> <int> <int> <dbl>   <dbl>   <dbl> <dbl> <dbl>
#> 1 2003-03-11 00:00:00  2003     3    11    70     0       0       0     0     0
#> 2 2003-03-12 00:00:00  2003     3    12    71     0       0       0     0     0
#> 3 2003-03-13 00:00:00  2003     3    13    72     0       0       0     0     0
#> 4 2003-03-14 00:00:00  2003     3    14    73     0       0       0     0     0
#> 5 2003-03-15 00:00:00  2003     3    15    74     0       0       0     0     0
#> # ... with 124 more rows, and 15 more variables: HR_3 <dbl>, HR_4 <dbl>,
#> #   resmes <dbl>, zrac <dbl>, QNplante <dbl>, azomes <dbl>, INN <dbl>,
#> #   fapar <dbl>, hauteur <dbl>, hmax <dbl>, LRACH_1 <dbl>, LRACH_2 <dbl>,
#> #   LRACH_3 <dbl>, LRACH_4 <dbl>, cum_jul <int>
#> 
#> $sim_list[[2]]$maize
#> # A tibble: 249 x 51
#>   Date                  ian    mo    jo   jul lai_n masec_n mafruit  HR_1  HR_2
#>   <dttm>              <int> <int> <int> <int> <dbl>   <dbl>   <dbl> <dbl> <dbl>
#> 1 1996-04-21 00:00:00  1996     4    21   112     0       0       0  22.4  22.3
#> 2 1996-04-22 00:00:00  1996     4    22   113     0       0       0  22.5  24.5
#> 3 1996-04-23 00:00:00  1996     4    23   114     0       0       0  22.5  24.7
#> 4 1996-04-24 00:00:00  1996     4    24   115     0       0       0  22.2  24.7
#> 5 1996-04-25 00:00:00  1996     4    25   116     0       0       0  22.0  24.7
#> # ... with 244 more rows, and 41 more variables: HR_3 <dbl>, HR_4 <dbl>,
#> #   HR_5 <dbl>, resmes <dbl>, drain <dbl>, esol <dbl>, et <dbl>, zrac <dbl>,
#> #   tcult <dbl>, AZnit_1 <dbl>, AZnit_2 <dbl>, AZnit_3 <dbl>, AZnit_4 <dbl>,
#> #   AZnit_5 <dbl>, Qles <dbl>, QNplante <dbl>, azomes <dbl>, inn <dbl>,
#> #   chargefruit <dbl>, AZamm_1 <dbl>, AZamm_2 <dbl>, AZamm_3 <dbl>,
#> #   AZamm_4 <dbl>, AZamm_5 <dbl>, CNgrain <dbl>, concNO3les <dbl>, drat <dbl>,
#> #   fapar <dbl>, hauteur <dbl>, Hmax <dbl>, humidite <dbl>, LRACH_1 <dbl>,
#> #   LRACH_2 <dbl>, LRACH_3 <dbl>, LRACH_4 <dbl>, LRACH_5 <dbl>, mafrais <dbl>,
#> #   pdsfruitfrais <dbl>, Qdrain <dbl>, rnet <dbl>, cum_jul <int>
```
…
